ID,CUSTOMER_ID,LAST_MODIFIED_DATE,ORDER_DATE,SHIP_DATE,CREATED_DATE_TIME,CREATED_BY,MODIFIED_DATE_TIME,MODIFIED_BY
1,1,"2016-09-01 08:00:00","2016-09-01 08:00:00","2016-09-02 08:00:00","2016-09-01 08:00:00","jdoe","2016-09-01 08:00:00","jdoe"
2,1,"2016-09-09 12:00:00","2016-09-09 12:00:00","2016-09-10 12:00:00","2016-09-09 12:00:00","jdoe","2016-09-09 12:00:00","jdoe"
